<svg width="155" height="43" viewBox="0 0 155 43" fill="none" xmlns="http://www.w3.org/2000/svg">
<path d="M30.3251 11C30.3251 11.2933 29.9251 11.44 29.1251 11.44C28.8318 11.44 28.4451 11.4 27.9651 11.32C27.4851 11.24 26.5918 11.12 25.2851 10.96C23.9785 10.8 22.5785 10.72 21.0851 10.72C19.6185 10.72 18.2851 11.12 17.0851 11.92C15.8851 12.6933 14.8718 13.6933 14.0451 14.92C13.2451 16.1467 12.6185 17.52 12.1651 19.04C11.7385 20.56 11.5251 22.0533 11.5251 23.52C11.5251 26.1867 12.1385 28.2667 13.3651 29.76C14.5918 31.2533 16.2985 32 18.4851 32C22.4318 32 25.4585 30.6 27.5651 27.8C28.2051 26.9467 28.7251 26 29.1251 24.96C27.1785 24.72 25.6851 24 24.6451 22.8C23.6051 21.5733 23.0851 20.08 23.0851 18.32C23.0851 16.5333 23.5785 15.12 24.5651 14.08C25.5518 13.04 26.8718 12.52 28.5251 12.52C30.2051 12.52 31.4851 13.16 32.3651 14.44C33.2718 15.6933 33.7251 17.28 33.7251 19.2C33.7251 19.8667 33.6985 20.4933 33.6451 21.08C34.1251 20.8667 34.5251 20.64 34.8451 20.4C35.1651 20.16 35.4851 20.04 35.8051 20.04C36.3385 20.04 36.6051 20.2667 36.6051 20.72C36.6051 21.6533 36.2851 22.4667 35.6451 23.16C35.0318 23.8267 34.2051 24.3333 33.1651 24.68C32.3651 28.5733 30.6585 31.6533 28.0451 33.92C25.4585 36.1867 22.0985 37.32 17.9651 37.32C13.8318 37.32 10.6051 36.0667 8.28512 33.56C6.25845 31.3467 5.24512 28.5067 5.24512 25.04C5.24512 22.6933 5.61845 20.4267 6.36512 18.24C7.13845 16.0533 8.21845 14.12 9.60512 12.44C11.0185 10.76 12.7251 9.41333 14.7251 8.4C16.7251 7.38667 18.9651 6.88 21.4451 6.88C23.9518 6.88 26.0585 7.32 27.7651 8.2C29.4718 9.08 30.3251 10.0133 30.3251 11ZM29.0451 16.04C28.4851 16.04 28.2051 16.4933 28.2051 17.4C28.2051 19 28.8451 20.16 30.1251 20.88C30.2051 20.16 30.2451 19.4133 30.2451 18.64C30.2451 16.9067 29.8451 16.04 29.0451 16.04Z" fill="white"/>
<path d="M53.4704 27.56C53.9504 27.56 54.1904 27.9733 54.1904 28.8C54.1904 29.6 53.9771 30.4667 53.5504 31.4C53.1504 32.3333 52.5238 33.24 51.6704 34.12C50.8438 34.9733 49.7771 35.7067 48.4704 36.32C47.1638 36.9333 45.6171 37.24 43.8304 37.24C42.0704 37.24 40.5238 36.72 39.1904 35.68C37.8571 34.6133 37.1904 33.0933 37.1904 31.12C37.1904 29.12 37.4971 27.32 38.1104 25.72C38.7504 24.0933 39.5771 22.6933 40.5904 21.52C41.6304 20.3467 42.8038 19.44 44.1104 18.8C45.4171 18.1333 46.6571 17.8 47.8304 17.8C49.8838 17.8 50.9104 18.6133 50.9104 20.24C50.9104 21.1733 50.7104 21.92 50.3104 22.48C49.9371 23.04 49.5504 23.32 49.1504 23.32C48.6171 23.32 48.1504 23.1333 47.7504 22.76C47.3504 22.3867 46.9104 22.2 46.4304 22.2C45.9504 22.1733 45.4838 22.4 45.0304 22.88C44.6038 23.36 44.2438 23.9733 43.9504 24.72C43.3638 26.2133 43.0704 27.96 43.0704 29.96C43.0971 30.92 43.5371 31.64 44.3904 32.12C44.9771 32.44 45.6704 32.6133 46.4704 32.64C47.2704 32.64 48.0304 32.3733 48.7504 31.84C49.4971 31.3067 50.1771 30.7333 50.7904 30.12C51.4038 29.48 51.9371 28.8933 52.3904 28.36C52.8704 27.8267 53.2304 27.56 53.4704 27.56Z" fill="white"/>
<path d="M53.9598 34.84C53.6665 34.12 53.4531 33.2933 53.3198 32.36C53.1865 31.4 53.1198 30.0667 53.1198 28.36C53.1198 26.6533 53.4398 24.3467 54.0798 21.44H52.2798C51.9598 21.44 51.7998 21.3067 51.7998 21.04C51.7998 20.4 51.8531 19.88 51.9598 19.48C52.0931 19.0533 52.3865 18.5733 52.8398 18.04H53.7998C54.1731 18.04 54.5731 18.0267 54.9998 18C56.2798 13.8933 57.5865 11.84 58.9198 11.84C59.9865 11.8667 60.7331 12.5467 61.1598 13.88C61.2665 14.2533 61.3865 14.6533 61.5198 15.08L59.8798 17.96C61.7465 18.0133 62.9198 18.04 63.3998 18.04C63.9065 18.04 64.1731 18.0933 64.1998 18.2C64.2531 18.28 64.2798 18.4133 64.2798 18.6C64.2798 19.08 64.1598 19.68 63.9198 20.4C63.7065 21.12 63.4531 21.4667 63.1598 21.44L59.1598 21.24C58.5998 24.4933 58.3198 27.1867 58.3198 29.32C58.3198 31.4533 58.6265 32.52 59.2398 32.52C59.7465 32.52 60.6665 32.1067 61.9998 31.28C63.3331 30.4267 64.2931 29.6133 64.8798 28.84C65.4665 28.0667 65.9465 27.68 66.3198 27.68C66.6931 27.68 66.8798 28.1333 66.8798 29.04C66.8798 29.9467 66.5598 30.88 65.9198 31.84C65.2798 32.7733 64.4665 33.64 63.4798 34.44C62.5198 35.2133 61.4398 35.8533 60.2398 36.36C59.0665 36.8667 58.0398 37.12 57.1598 37.12C56.2798 37.12 55.5998 36.92 55.1198 36.52C54.6665 36.0933 54.2798 35.5333 53.9598 34.84Z" fill="white"/>
<path d="M81.0551 33.6C78.9484 36.08 76.4151 37.32 73.4551 37.32C70.5218 37.32 68.3218 36.5733 66.8551 35.08C65.3885 33.56 64.6685 31.68 64.6951 29.44C64.6685 26.2667 65.6685 23.5333 67.6951 21.24C69.7218 18.9467 72.3751 17.8 75.6551 17.8C77.1484 17.8 78.3484 17.9867 79.2551 18.36C80.8284 19 81.6151 19.6 81.6151 20.16C81.6151 20.5867 80.5084 20.8133 78.2951 20.84C76.1084 20.84 74.2684 21.6 72.7751 23.12C71.3084 24.6133 70.5751 26.5067 70.5751 28.8C70.5751 30 70.9218 31.0133 71.6151 31.84C72.3351 32.64 73.3351 33.04 74.6151 33.04C75.9218 33.04 77.0018 32.7733 77.8551 32.24C75.9618 30.96 75.0151 29.1067 75.0151 26.68C74.9884 25.4 75.4418 24.24 76.3751 23.2C77.3351 22.1333 78.5484 21.6 80.0151 21.6C81.5084 21.5733 82.5751 21.9733 83.2151 22.8C83.8551 23.6267 84.1751 24.6933 84.1751 26C84.1751 27.28 83.8684 28.64 83.2551 30.08H83.4951C84.6685 30.0533 85.6818 29.64 86.5351 28.84C86.8551 28.52 87.1218 28.24 87.3351 28C87.5751 27.76 87.8151 27.64 88.0551 27.64C88.4284 27.64 88.6151 28.08 88.6151 28.96C88.6151 30.5867 88.1351 31.8133 87.1751 32.64C86.2151 33.44 85.1484 33.84 83.9751 33.84C82.8284 33.84 81.8551 33.76 81.0551 33.6ZM80.6951 28.96C81.1484 28 81.3751 27.0667 81.3751 26.16C81.3751 25.2533 81.0818 24.8 80.4951 24.8C80.2551 24.8 80.0551 24.9733 79.8951 25.32C79.7351 25.6667 79.6551 26 79.6551 26.32C79.6551 27.3867 80.0018 28.2667 80.6951 28.96Z" fill="white"/>
<path d="M98.2939 28.24C99.0139 31.0933 100.227 32.52 101.934 32.52C102.761 32.52 103.507 32.2667 104.174 31.76C104.841 31.2533 105.441 30.7067 105.974 30.12C106.507 29.5067 106.974 28.9467 107.374 28.44C107.774 27.9333 108.147 27.68 108.494 27.68C108.841 27.68 109.014 28.1333 109.014 29.04C109.014 30.9333 108.134 32.76 106.374 34.52C104.614 36.28 102.641 37.1467 100.454 37.12C98.2939 37.12 96.3605 35.2133 94.6539 31.4C94.1739 30.3333 93.7205 29.2533 93.2939 28.16L93.0139 33.64C93.0139 34.1467 92.9872 34.6533 92.9339 35.16C92.8805 35.64 92.6539 36.04 92.2539 36.36C91.2139 37.1867 90.1605 37.6 89.0939 37.6C87.8405 37.6 87.2139 36.3067 87.2139 33.72C87.2139 29.9867 87.6539 26.08 88.5339 22C89.4139 17.92 90.2672 14.8533 91.0939 12.8C91.9472 10.72 92.6005 9.33333 93.0539 8.64C93.5339 7.94667 93.9072 7.52 94.1739 7.36C94.4405 7.2 94.7339 7.12 95.0539 7.12C95.4005 7.12 95.7605 7.29333 96.1339 7.64C96.5072 7.96 96.9072 8.46666 97.3339 9.16C97.7605 9.82667 97.9739 10.4933 97.9739 11.16C98.0005 11.8 97.8939 12.44 97.6539 13.08C97.4405 13.6933 97.1472 14.3067 96.7739 14.92C96.4005 15.5067 95.9872 16.12 95.5339 16.76C95.0805 17.3733 94.6272 18.04 94.1739 18.76L93.7739 22.12C94.7072 20.1733 96.0805 18.8667 97.8939 18.2C98.5339 17.96 99.2805 17.84 100.134 17.84C101.841 17.84 103.147 18.2533 104.054 19.08C104.961 19.88 105.414 21.0667 105.414 22.64C105.414 24.2133 104.627 25.5467 103.054 26.64C101.481 27.7333 99.8939 28.2667 98.2939 28.24ZM99.8139 23.56C99.8139 22.6 99.2672 22.12 98.1739 22.12C97.0805 22.12 95.8939 23.1733 94.6139 25.28C94.2405 25.8933 93.9205 26.52 93.6539 27.16C96.4272 27 98.3205 26.2533 99.3339 24.92C99.6539 24.4933 99.8139 24.04 99.8139 23.56Z" fill="white"/>
<path d="M111.804 37.12C109.138 37.12 107.804 34.6267 107.804 29.64C107.804 26.92 108.138 24.4533 108.804 22.24C109.844 18.8267 111.018 17.12 112.324 17.12C113.098 17.12 113.711 17.64 114.164 18.68C114.538 19.48 114.711 20.2667 114.684 21.04C114.684 22.1067 114.364 23.9867 113.724 26.68C113.111 29.0267 112.804 30.48 112.804 31.04C112.804 31.6 112.938 31.9867 113.204 32.2C113.498 32.4133 113.831 32.52 114.204 32.52C114.604 32.52 115.098 32.2667 115.684 31.76C116.271 31.2533 116.858 30.7067 117.444 30.12C118.031 29.5067 118.564 28.9467 119.044 28.44C119.551 27.9333 119.898 27.68 120.084 27.68C120.458 27.68 120.644 28.1333 120.644 29.04C120.644 30.9067 119.698 32.7333 117.804 34.52C115.938 36.28 113.938 37.1467 111.804 37.12ZM113.444 13.88C112.724 12.8133 112.364 11.6667 112.364 10.44C112.364 9.21333 112.551 8.2 112.924 7.4C113.324 6.57333 113.698 5.97333 114.044 5.6C114.391 5.2 114.791 5 115.244 5C115.991 5 116.671 5.56 117.284 6.68C117.898 7.77333 118.204 8.69333 118.204 9.44C118.204 10.8267 117.711 11.92 116.724 12.72C115.764 13.4933 114.671 13.88 113.444 13.88Z" fill="white"/>
<path d="M127.765 17.64C129.552 17.6133 130.885 17.9467 131.765 18.64C132.645 19.3067 133.085 20.28 133.085 21.56C133.085 22.8133 132.698 23.8933 131.925 24.8C131.178 25.68 130.258 26.3067 129.165 26.68C129.938 27.48 130.632 28.2933 131.245 29.12C131.885 29.9467 132.205 30.8133 132.205 31.72C132.205 33.5067 131.498 34.8933 130.085 35.88C128.672 36.84 126.698 37.32 124.165 37.32C121.658 37.32 119.778 36.8267 118.525 35.84C117.272 34.8267 116.645 33.6933 116.645 32.44C116.645 31.16 116.952 30 117.565 28.96C118.205 27.92 118.885 27.4 119.605 27.4C120.032 27.4 120.338 27.56 120.525 27.88C120.712 28.1733 121.058 29.0533 121.565 30.52C121.752 31.0533 122.058 31.56 122.485 32.04C123.472 33.1333 125.032 33.68 127.165 33.68C126.845 32.6667 126.325 31.8 125.605 31.08C124.912 30.3333 124.218 29.6133 123.525 28.92C122.832 28.2267 122.218 27.4933 121.685 26.72C121.152 25.92 120.885 24.9867 120.885 23.92C120.885 22 121.605 20.44 123.045 19.24C124.405 18.1733 125.978 17.64 127.765 17.64ZM127.605 25.04C128.672 23.8933 129.205 22.9733 129.205 22.28C129.205 21.96 129.085 21.68 128.845 21.44C128.632 21.1733 128.312 21.04 127.885 21.04C127.458 21.04 127.045 21.0933 126.645 21.2C126.272 21.3067 125.965 21.3867 125.725 21.44C125.725 22.4533 126.352 23.6533 127.605 25.04Z" fill="white"/>
<path d="M143.82 17.64C145.606 17.6133 146.94 17.9467 147.82 18.64C148.7 19.3067 149.14 20.28 149.14 21.56C149.14 22.8133 148.753 23.8933 147.98 24.8C147.233 25.68 146.313 26.3067 145.22 26.68C145.993 27.48 146.686 28.2933 147.3 29.12C147.94 29.9467 148.26 30.8133 148.26 31.72C148.26 33.5067 147.553 34.8933 146.14 35.88C144.726 36.84 142.753 37.32 140.22 37.32C137.713 37.32 135.833 36.8267 134.58 35.84C133.326 34.8267 132.7 33.6933 132.7 32.44C132.7 31.16 133.006 30 133.62 28.96C134.26 27.92 134.94 27.4 135.66 27.4C136.086 27.4 136.393 27.56 136.58 27.88C136.766 28.1733 137.113 29.0533 137.62 30.52C137.806 31.0533 138.113 31.56 138.54 32.04C139.526 33.1333 141.086 33.68 143.22 33.68C142.9 32.6667 142.38 31.8 141.66 31.08C140.966 30.3333 140.273 29.6133 139.58 28.92C138.886 28.2267 138.273 27.4933 137.74 26.72C137.206 25.92 136.94 24.9867 136.94 23.92C136.94 22 137.66 20.44 139.1 19.24C140.46 18.1733 142.033 17.64 143.82 17.64ZM143.66 25.04C144.726 23.8933 145.26 22.9733 145.26 22.28C145.26 21.96 145.14 21.68 144.9 21.44C144.686 21.1733 144.366 21.04 143.94 21.04C143.513 21.04 143.1 21.0933 142.7 21.2C142.326 21.3067 142.02 21.3867 141.78 21.44C141.78 22.4533 142.406 23.6533 143.66 25.04Z" fill="white"/>
<path fill-rule="evenodd" clip-rule="evenodd" d="M14.0451 14.92C14.7714 13.8422 15.6418 12.9395 16.6564 12.2117C16.7965 12.1111 16.9394 12.0139 17.0851 11.92C18.223 11.1614 19.4808 10.7625 20.8585 10.7232C20.9134 10.7217 20.9685 10.7207 21.0237 10.7202C21.0442 10.7201 21.0646 10.72 21.0851 10.72C21.2057 10.72 21.3257 10.7205 21.4451 10.7216C22.804 10.7334 24.084 10.8129 25.2851 10.96C25.2985 10.9616 25.3119 10.9633 25.3253 10.9649C25.4224 10.9768 25.5173 10.9885 25.6099 11C25.8479 11.0295 26.0706 11.0575 26.278 11.084C26.7704 11.147 27.1765 11.2017 27.4961 11.2479C27.6815 11.2748 27.8378 11.2988 27.9651 11.32C28.1685 11.3539 28.3552 11.3806 28.5251 11.4002C28.7207 11.4226 28.894 11.4356 29.0451 11.4391C29.0725 11.4397 29.0992 11.44 29.1251 11.44C29.756 11.44 30.1381 11.3488 30.2715 11.1664C30.3072 11.1175 30.3251 11.062 30.3251 11C30.3251 10.3245 29.9251 9.67395 29.1251 9.04843C28.9453 8.90784 28.7453 8.76852 28.5251 8.63046C28.4918 8.60958 28.458 8.58872 28.4238 8.5679C28.2205 8.44425 28.001 8.32161 27.7651 8.2C27.4138 8.01883 27.0455 7.85631 26.6602 7.71244C26.6301 7.7012 26.5999 7.69007 26.5696 7.67906C26.2949 7.57925 26.0118 7.4888 25.7201 7.4077C24.455 7.0559 23.03 6.88 21.4451 6.88C21.3246 6.88 21.2046 6.8812 21.0851 6.88359C18.7762 6.92989 16.6792 7.42377 14.7943 8.36522C14.7745 8.37508 14.7548 8.38499 14.7351 8.39495C14.7318 8.39663 14.7284 8.39832 14.7251 8.4C12.8943 9.32762 11.3093 10.5346 9.97005 12.0208C9.84631 12.1582 9.72466 12.2979 9.60512 12.44C8.21845 14.12 7.13845 16.0533 6.36512 18.24C5.61845 20.4267 5.24512 22.6933 5.24512 25.04C5.24512 28.5067 6.25845 31.3467 8.28512 33.56C10.6051 36.0667 13.8318 37.32 17.9651 37.32C21.0058 37.32 23.628 36.7067 25.8317 35.48C26.6235 35.0392 27.3613 34.5192 28.0451 33.92C29.2141 32.9061 30.2016 31.7295 31.0077 30.3902C31.0089 30.3883 31.01 30.3864 31.0111 30.3845C31.4911 29.5863 31.9067 28.7302 32.2579 27.8165C32.3551 27.5638 32.4472 27.3067 32.5345 27.0452C32.5569 26.9782 32.5789 26.9109 32.6006 26.8434C32.6524 26.682 32.7024 26.5191 32.7506 26.3544C32.9021 25.8362 33.0354 25.3016 33.1505 24.7506C33.1554 24.7271 33.1603 24.7036 33.1651 24.68C33.1684 24.6789 33.1716 24.6778 33.1749 24.6767C33.3808 24.6078 33.5784 24.5326 33.7677 24.451C33.927 24.3824 34.0804 24.3092 34.2278 24.2317C34.242 24.2242 34.2561 24.2167 34.2702 24.2091C34.4652 24.1045 34.6496 23.9921 34.8235 23.8716C34.8394 23.8606 34.8553 23.8495 34.871 23.8383C34.8908 23.8243 34.9104 23.8102 34.9299 23.796C35.194 23.6032 35.4324 23.3912 35.6451 23.16C35.7009 23.0996 35.7542 23.0383 35.8051 22.976C35.9856 22.7554 36.1355 22.5233 36.2549 22.2798C36.3996 21.9848 36.4994 21.673 36.5544 21.3445C36.5882 21.1427 36.6051 20.9345 36.6051 20.72C36.6051 20.2667 36.3385 20.04 35.8051 20.04C35.6729 20.04 35.5407 20.0605 35.4085 20.1015C35.3391 20.123 35.2697 20.1501 35.2003 20.1829C35.0819 20.2388 34.9635 20.3112 34.8451 20.4C34.758 20.4653 34.6651 20.5296 34.5661 20.593C34.4993 20.6358 34.4297 20.6781 34.3575 20.72M33.6893 20.4848C33.6847 20.5639 33.6796 20.6423 33.6741 20.72C33.6656 20.8416 33.6559 20.9616 33.6451 21.08M33.6893 20.4848C33.7132 20.0745 33.7251 19.6462 33.7251 19.2C33.7251 19.0997 33.7239 19.0002 33.7214 18.9017C33.7192 18.8137 33.716 18.7265 33.7118 18.64C33.658 17.5281 33.4412 16.5361 33.0613 15.664C33.025 15.5805 32.9872 15.4982 32.9478 15.417C32.7806 15.0715 32.5863 14.7458 32.3651 14.44C31.593 13.317 30.513 12.6866 29.1251 12.5489C29.0986 12.5462 29.0719 12.5438 29.0451 12.5415C28.8763 12.5272 28.7029 12.52 28.5251 12.52C28.2611 12.52 28.0055 12.5333 27.7585 12.5598C26.6505 12.6788 25.7135 13.0645 24.9475 13.7171C24.8149 13.8301 24.6875 13.951 24.5651 14.08C24.0983 14.572 23.742 15.1476 23.496 15.8067C23.3832 16.1092 23.2936 16.4292 23.2272 16.7668C23.1325 17.2487 23.0851 17.7664 23.0851 18.32C23.0851 20.08 23.6051 21.5733 24.6451 22.8C24.8766 23.0671 25.1305 23.3104 25.4069 23.5299C25.5038 23.6069 25.6034 23.6809 25.7058 23.752C26.3465 24.1969 27.0952 24.5274 27.9519 24.7436C27.9702 24.7482 27.9886 24.7528 28.007 24.7573C28.0983 24.7797 28.1908 24.8008 28.2844 24.8206C28.5546 24.8777 28.8348 24.9242 29.1251 24.96C29.0091 25.2617 28.883 25.5555 28.7468 25.8414C28.5469 26.2611 28.3252 26.6639 28.0818 27.0497C27.9193 27.3073 27.747 27.5574 27.5651 27.8C27.1128 28.4011 26.6182 28.9377 26.0811 29.4098C25.709 29.7369 25.3165 30.033 24.9037 30.2981C24.8968 30.3025 24.8898 30.307 24.8829 30.3114C24.46 30.5815 24.0157 30.8192 23.5501 31.0245C22.0755 31.6748 20.3871 32 18.4851 32C16.2985 32 14.5918 31.2533 13.3651 29.76C12.1385 28.2667 11.5251 26.1867 11.5251 23.52C11.5251 22.0533 11.7385 20.56 12.1651 19.04C12.5948 17.5993 13.1802 16.2903 13.9214 15.1131C13.9621 15.0483 14.0034 14.984 14.0451 14.92M18.0921 17.8745C18.0874 18.023 18.0851 18.1715 18.0851 18.32C18.0851 21.1442 18.9513 23.8159 20.8313 26.0334L20.8489 26.0541L20.8667 26.0747C21.0079 26.2376 21.1525 26.3947 21.3005 26.5463C20.5417 26.8406 19.6239 27 18.4851 27C17.5732 27 17.3735 26.7625 17.2288 26.5863C16.9728 26.2748 16.5251 25.4654 16.5251 23.52C16.5251 22.5551 16.6632 21.5292 16.9681 20.4304C17.2635 19.4511 17.6435 18.6067 18.0921 17.8745ZM30.1985 20.0545C30.2175 19.7735 30.2306 19.4887 30.238 19.2C30.2428 19.0149 30.2451 18.8282 30.2451 18.64C30.2451 18.1603 30.2145 17.747 30.1532 17.4C30.0777 16.9724 29.9556 16.6457 29.7871 16.4197C29.7681 16.3943 29.7486 16.3702 29.7285 16.3474C29.7108 16.3273 29.6926 16.3082 29.6741 16.2901C29.5216 16.1416 29.3386 16.0592 29.1251 16.043C29.0989 16.041 29.0722 16.04 29.0451 16.04C28.8308 16.04 28.6574 16.1064 28.5251 16.2393C28.4771 16.2875 28.4344 16.3446 28.3972 16.4103C28.2691 16.6366 28.2051 16.9665 28.2051 17.4C28.2051 17.4481 28.2057 17.4958 28.2069 17.5431C28.2165 17.9362 28.266 18.3018 28.3555 18.64C28.4412 18.9637 28.5634 19.2622 28.7222 19.5355C28.778 19.6316 28.8384 19.7246 28.9032 19.8144C28.9484 19.8769 28.9956 19.9379 29.0451 19.9974C29.2221 20.2101 29.427 20.4037 29.6598 20.578C29.6615 20.5792 29.6632 20.5805 29.6649 20.5818C29.7375 20.6359 29.8128 20.6883 29.8908 20.7387C29.9664 20.7875 30.0445 20.8346 30.1251 20.88C30.1295 20.8405 30.1338 20.8009 30.1379 20.7612C30.1502 20.6439 30.1614 20.526 30.1716 20.4074C30.1816 20.2904 30.1906 20.1728 30.1985 20.0545ZM36.4504 11.5568C37.3357 12.7939 37.9295 14.143 38.2878 15.5486C38.5757 15.676 38.8682 15.8344 39.1579 16.0309C40.0009 15.3758 40.9062 14.8051 41.8741 14.3279C43.7025 13.4005 45.7081 12.8 47.8304 12.8C48.6081 12.8 49.5202 12.8715 50.4599 13.1196L50.5276 13.04H51.4959C51.8697 12.1858 52.2757 11.3962 52.7215 10.6956C53.5523 9.39009 55.5142 6.84 58.9198 6.84H58.9823L59.0448 6.84156C60.7061 6.8831 62.331 7.47532 63.6465 8.67329C64.8699 9.78746 65.54 11.1625 65.9219 12.3561L65.9459 12.4309L65.9674 12.5064C66.0613 12.835 66.1693 13.1954 66.2922 13.5886L66.3034 13.6245C66.3776 13.6604 66.4529 13.699 66.5291 13.7405C66.8427 13.9116 67.3493 14.2339 67.8389 14.7564C70.1629 13.4445 72.8057 12.8 75.6551 12.8C77.4904 12.8 79.4095 13.0187 81.1479 13.7321C82.0944 14.1176 83.1515 14.6235 84.0574 15.3144C84.2519 15.4628 84.5286 15.6873 84.8287 15.9896C85.3549 14.0222 85.8949 12.3254 86.4556 10.9327L86.4618 10.9174L86.468 10.9022C87.3042 8.86394 88.1188 7.05119 88.869 5.90375L88.9052 5.84836L88.9429 5.79395C89.244 5.35897 89.5759 4.9133 89.931 4.50748C90.2274 4.16871 90.7958 3.5559 91.6014 3.07254L94.1739 7.36C93.9072 7.52 93.5339 7.94667 93.0539 8.64C92.6005 9.33333 91.9472 10.72 91.0939 12.8C90.7429 13.6718 90.3871 14.7262 90.0265 15.9634C90.0114 16.0153 89.9962 16.0675 89.9811 16.1201C89.7957 16.7633 89.609 17.4547 89.4211 18.1942C89.2815 18.7435 89.1412 19.3195 89.0002 19.922C88.8456 20.5827 88.6902 21.2754 88.5339 22C88.5242 22.0448 88.5146 22.0895 88.5051 22.1342C88.4682 22.3067 88.4322 22.4789 88.3969 22.6508C88.2733 23.2535 88.1594 23.8524 88.0551 24.4474C87.9639 24.9679 87.8802 25.4854 87.8038 26C87.7139 26.6064 87.6342 27.2087 87.5648 27.807C87.4882 27.8591 87.4117 27.9234 87.3351 28C87.1218 28.24 86.8551 28.52 86.5351 28.84C86.4914 28.881 86.4472 28.921 86.4026 28.96C86.2381 29.1038 86.0679 29.2338 85.8919 29.3499C85.5654 29.5655 85.2191 29.7334 84.8532 29.8537C84.833 29.8603 84.8128 29.8668 84.7925 29.8731C84.5301 29.9551 84.2576 30.0129 83.9751 30.0465C83.96 30.0483 83.9448 30.05 83.9296 30.0517C83.8158 30.0641 83.7004 30.0726 83.5834 30.0772C83.5541 30.0784 83.5247 30.0793 83.4951 30.08H83.2551C83.28 30.0215 83.3045 29.9631 83.3284 29.9048C83.3822 29.7736 83.4335 29.6431 83.4822 29.5132C83.4865 29.5017 83.4908 29.4902 83.4951 29.4787C83.5343 29.3733 83.5719 29.2683 83.6077 29.1638C83.6156 29.1407 83.6234 29.1177 83.6311 29.0946C83.6463 29.0497 83.6611 29.0048 83.6755 28.96C83.6887 28.9193 83.7016 28.8787 83.7142 28.8382C83.7734 28.6483 83.8269 28.4599 83.8746 28.2729C83.9629 27.9275 84.0317 27.5872 84.0811 27.252C84.1201 26.987 84.147 26.7252 84.1617 26.4666C84.1645 26.4176 84.1669 26.3688 84.1688 26.32C84.1688 26.3187 84.1689 26.3174 84.1689 26.3161C84.171 26.2639 84.1725 26.2119 84.1735 26.16C84.1746 26.1065 84.1751 26.0532 84.1751 26C84.1751 25.8281 84.1696 25.6603 84.1585 25.4966C84.1505 25.3779 84.1395 25.2614 84.1256 25.1471C84.1081 25.0026 84.0859 24.8615 84.059 24.7239C84.0566 24.7113 84.0541 24.6987 84.0515 24.6862C84.0254 24.5572 83.9952 24.4314 83.9608 24.3086C83.8086 23.7651 83.5754 23.2824 83.2611 22.8605C83.2459 22.8402 83.2306 22.82 83.2151 22.8C82.6459 22.0648 81.7393 21.6671 80.4951 21.6068C80.3403 21.5993 80.1803 21.597 80.0151 21.6C79.4016 21.6 78.8325 21.6933 78.3076 21.8799C78.3035 21.8814 78.2993 21.8829 78.2951 21.8844C78.0964 21.9557 77.904 22.0405 77.718 22.1386C77.71 22.1429 77.702 22.1471 77.6939 22.1514C77.5427 22.2325 77.3957 22.3224 77.2529 22.4213C77.0663 22.5504 76.887 22.6949 76.7149 22.8545C76.5983 22.9627 76.485 23.0779 76.3751 23.2C76.2695 23.3177 76.17 23.4369 76.0767 23.5577C75.6182 24.151 75.3081 24.7814 75.1463 25.4488C75.1462 25.449 75.1463 25.4486 75.1463 25.4488C75.0776 25.7323 75.0356 26.0231 75.0204 26.32C75.0144 26.4389 75.0126 26.5589 75.0151 26.68C75.0151 27.1422 75.0495 27.5836 75.1181 28.0042C75.1374 28.1221 75.1593 28.2383 75.184 28.3529C75.2004 28.4294 75.2181 28.5053 75.237 28.5803C75.2523 28.6413 75.2684 28.7018 75.2853 28.7618C75.2889 28.7745 75.2925 28.7873 75.2962 28.8C75.5456 29.6651 75.961 30.4296 76.5424 31.0937C76.7241 31.3012 76.922 31.4989 77.1361 31.6868C77.2823 31.815 77.436 31.9387 77.5973 32.0578C77.6812 32.1198 77.7671 32.1805 77.8551 32.24C77.6587 32.3627 77.4503 32.4714 77.2299 32.5659C77.0531 32.6417 76.8687 32.7084 76.6765 32.766C76.067 32.9487 75.3799 33.04 74.6151 33.04C74.1988 33.04 73.8122 32.9977 73.4551 32.9131C72.9037 32.7824 72.4229 32.5508 72.0127 32.2183C71.8719 32.1041 71.7393 31.978 71.6151 31.84C71.5707 31.7871 71.5278 31.7334 71.4863 31.679C70.9226 30.9402 70.6204 30.0605 70.5798 29.04C70.5767 28.9608 70.5751 28.8808 70.5751 28.8C70.5751 28.0836 70.6467 27.4063 70.7898 26.768C70.7964 26.7386 70.8031 26.7093 70.81 26.68C70.8956 26.3173 71.0045 25.9673 71.1368 25.6301C71.3754 25.0218 71.69 24.455 72.0807 23.9297C72.2903 23.6479 72.5218 23.378 72.7751 23.12C73.3593 22.5253 73.9966 22.047 74.687 21.685C74.688 21.6845 74.689 21.6839 74.69 21.6834C75.0009 21.5205 75.3226 21.3813 75.6551 21.2656C75.9903 21.1489 76.3363 21.0563 76.6934 20.9876C76.8541 20.9567 77.0171 20.9306 77.1822 20.9094C77.5233 20.8656 77.8739 20.8425 78.2339 20.8402C78.238 20.8402 78.2421 20.8401 78.2462 20.8401C78.2625 20.84 78.2788 20.84 78.2951 20.84C78.9648 20.8319 79.5331 20.8056 80.0001 20.7609C80.0051 20.7604 80.0101 20.7599 80.0151 20.7594C80.1893 20.7425 80.3493 20.7231 80.4951 20.701C81.2418 20.5882 81.6151 20.4078 81.6151 20.16C81.6151 20.0729 81.5961 19.9848 81.558 19.8958C81.3946 19.5135 80.8803 19.1133 80.0151 18.6954C79.9978 18.687 79.9804 18.6786 79.9628 18.6703C79.7479 18.5679 79.512 18.4645 79.2551 18.36C78.9651 18.2406 78.6451 18.1403 78.2951 18.0591C78.2839 18.0565 78.2728 18.0539 78.2615 18.0513C77.9314 17.9763 77.5748 17.9181 77.1919 17.8766C76.7198 17.8255 76.2075 17.8 75.6551 17.8C75.5079 17.8 75.3619 17.8023 75.2171 17.8069C72.9433 17.8796 70.9812 18.5227 69.3309 19.7362C69.3307 19.7364 69.3311 19.7361 69.3309 19.7362C69.2829 19.7716 69.2345 19.8079 69.187 19.8442C68.9248 20.0445 68.6707 20.2595 68.4246 20.4892C68.173 20.7241 67.9299 20.9744 67.6951 21.24C67.6302 21.3135 67.5663 21.3874 67.5034 21.4618C67.4743 21.4963 67.4454 21.5309 67.4167 21.5656C67.1165 21.9287 66.8411 22.3024 66.5906 22.6868C66.4969 22.8306 66.4066 22.9759 66.3198 23.1226C65.7685 24.0551 65.3574 25.0477 65.0866 26.1004C64.8726 26.9325 64.7462 27.8021 64.7075 28.7093C64.7028 28.819 64.6994 28.9292 64.6972 29.04C64.6971 29.0494 64.6969 29.0589 64.6967 29.0683C64.594 29.1899 64.4823 29.3125 64.3615 29.436C64.3593 29.4383 64.357 29.4406 64.3548 29.4429C64.1129 29.6897 63.8348 29.9404 63.5207 30.1949C63.5104 30.2032 63.5001 30.2116 63.4897 30.2199C63.4479 30.2536 63.4055 30.2873 63.3624 30.3211C63.3591 30.3237 63.3557 30.3264 63.3524 30.329C63.133 30.5008 62.8974 30.6744 62.6454 30.8497C62.4409 30.992 62.2257 31.1354 61.9998 31.28C61.7447 31.4382 61.5047 31.5812 61.2799 31.7091C61.2766 31.711 61.2734 31.7128 61.2701 31.7147C60.759 32.0049 60.3265 32.2167 59.9724 32.3501C59.6716 32.4634 59.4274 32.52 59.2398 32.52C59.0004 32.52 58.8077 32.3575 58.6617 32.0324C58.6128 31.9234 58.5691 31.7961 58.5307 31.6506C58.3901 31.1182 58.3198 30.3414 58.3198 29.32C58.3198 29.1502 58.3216 28.9769 58.3251 28.8C58.3327 28.4234 58.3483 28.0307 58.3719 27.622C58.3724 27.6133 58.3729 27.6046 58.3734 27.5958C58.4081 27.0044 58.4595 26.3793 58.5277 25.7208C58.6178 24.8503 58.7372 23.9213 58.8859 22.9336C58.8969 22.8609 58.908 22.7879 58.9193 22.7145C58.9296 22.6474 58.94 22.5801 58.9506 22.5125C58.9916 22.2501 59.0346 21.9837 59.0796 21.7133C59.1057 21.5569 59.1324 21.3991 59.1598 21.24L63.1598 21.44C63.243 21.4476 63.323 21.4251 63.3998 21.3725C63.5937 21.2399 63.767 20.9157 63.9198 20.4C63.933 20.3605 63.9458 20.3213 63.9583 20.2825C64.1726 19.6145 64.2798 19.0536 64.2798 18.6C64.2798 18.4133 64.2531 18.28 64.1998 18.2C64.1823 18.1298 64.0606 18.0827 63.835 18.0587C63.7338 18.0479 63.6118 18.0418 63.4689 18.0403C63.4464 18.0401 63.4233 18.04 63.3998 18.04C63.3779 18.04 63.3546 18.0399 63.3298 18.0398C62.852 18.0377 61.8378 18.0149 60.2871 17.9715C60.1823 17.9686 60.075 17.9656 59.9653 17.9624C59.9369 17.9616 59.9085 17.9608 59.8798 17.96L61.5198 15.08C61.3865 14.6533 61.2665 14.2533 61.1598 13.88C61.0504 13.538 60.9199 13.239 60.7683 12.9829C60.329 12.2408 59.7129 11.8598 58.9198 11.84C58.411 11.84 57.9061 12.139 57.4051 12.7369C56.8735 13.3714 56.3463 14.3424 55.8234 15.6501C55.7703 15.7829 55.7173 15.9192 55.6643 16.059C55.6171 16.1832 55.57 16.3102 55.5229 16.44C55.4425 16.6617 55.3622 16.8914 55.282 17.129C55.2384 17.2585 55.1947 17.3903 55.1511 17.5244C55.1007 17.6798 55.0502 17.8383 54.9998 18C54.8779 18.0076 54.7582 18.0142 54.6406 18.0196C54.4485 18.0285 54.2623 18.0345 54.0818 18.0375C54.0811 18.0376 54.0805 18.0376 54.0798 18.0376C53.9849 18.0392 53.8915 18.04 53.7998 18.04H52.8398C52.6131 18.3067 52.4265 18.56 52.2798 18.8C52.1331 19.04 52.0265 19.2667 51.9598 19.48C51.9017 19.6978 51.8595 19.9511 51.833 20.24C51.8135 20.4533 51.8026 20.686 51.8003 20.9381C51.8 20.9717 51.7998 21.0057 51.7998 21.04C51.7998 21.2675 51.9163 21.398 52.1492 21.4314C52.1893 21.4371 52.2328 21.44 52.2798 21.44H54.0798C54.0528 21.5626 54.0264 21.684 54.0005 21.8045C53.9446 22.0653 53.8913 22.321 53.8406 22.5718C53.8268 22.6402 53.8132 22.7082 53.7998 22.7759C53.799 22.78 53.7982 22.7841 53.7974 22.7883C53.7806 22.8728 53.7642 22.9567 53.7481 23.04C53.6435 23.5807 53.552 24.097 53.4735 24.5887C53.4725 24.5953 53.4715 24.6018 53.4704 24.6083C53.4643 24.6471 53.4582 24.6857 53.4522 24.7241C53.3569 25.3345 53.2821 25.9064 53.2278 26.44C53.2178 26.5384 53.2085 26.6355 53.1999 26.7313C53.1699 27.0637 53.1484 27.3805 53.1353 27.6814C52.9317 27.8083 52.6834 28.0345 52.3904 28.36C52.269 28.5028 52.1419 28.6495 52.009 28.8C51.6457 29.2114 51.2395 29.6514 50.7904 30.12C50.7862 30.1242 50.7821 30.1284 50.7779 30.1325C50.7593 30.151 50.7408 30.1695 50.7221 30.1879C50.4922 30.4149 50.2531 30.6363 50.0047 30.8522C49.7078 31.1103 49.3978 31.3605 49.0746 31.6028C49.0741 31.6032 49.0736 31.6035 49.0732 31.6039C48.967 31.6834 48.8594 31.7621 48.7504 31.84C48.5906 31.9584 48.4288 32.0637 48.265 32.1558C47.7738 32.432 47.2649 32.5901 46.7383 32.6299C46.6495 32.6366 46.5602 32.64 46.4704 32.64C45.7507 32.616 45.1174 32.4733 44.5703 32.2119C44.5093 32.1828 44.4493 32.1521 44.3904 32.12C43.5371 31.64 43.0971 30.92 43.0704 29.96C43.0704 28.4762 43.2319 27.1319 43.5548 25.927C43.6671 25.5078 43.799 25.1055 43.9504 24.72C43.9721 24.6649 43.9941 24.6104 44.0165 24.5568C44.0245 24.5376 44.0325 24.5186 44.0406 24.4997C44.3165 23.8518 44.6465 23.3119 45.0304 22.88C45.2913 22.6038 45.5565 22.4115 45.8262 22.3031C45.8462 22.295 45.8661 22.2875 45.8861 22.2804C46.0656 22.2166 46.2471 22.1898 46.4304 22.2C46.6058 22.2 46.7759 22.2249 46.9406 22.2748C46.9559 22.2794 46.9711 22.2842 46.9863 22.2893C47.2413 22.3742 47.4834 22.5195 47.7125 22.7253C47.7252 22.7367 47.7378 22.7482 47.7504 22.76C47.7652 22.7738 47.78 22.7873 47.7949 22.8005C48.0464 23.0238 48.3235 23.1751 48.6263 23.2544C48.7932 23.2981 48.9679 23.32 49.1504 23.32C49.5504 23.32 49.9371 23.04 50.3104 22.48C50.5887 22.0904 50.7702 21.6104 50.8549 21.04C50.8695 20.9419 50.8812 20.8411 50.89 20.7377C50.9036 20.5781 50.9104 20.4122 50.9104 20.24C50.9104 19.9599 50.88 19.704 50.8191 19.4721C50.789 19.3574 50.7515 19.2487 50.7065 19.1458C50.6966 19.1231 50.6863 19.1008 50.6757 19.0787C50.5812 18.8825 50.4583 18.7089 50.3069 18.5579C49.8003 18.0526 48.9748 17.8 47.8304 17.8C47.6354 17.8 47.4385 17.8092 47.2398 17.8276C47.0512 17.8451 46.861 17.8709 46.669 17.905C46.5898 17.919 46.5103 17.9345 46.4304 17.9514C45.682 18.1099 44.9086 18.3927 44.1104 18.8C43.3937 19.1511 42.717 19.5824 42.0805 20.0939C42.0483 20.1198 42.0162 20.1459 41.9842 20.1722C41.8547 20.2785 41.727 20.3882 41.6009 20.5013C41.5212 20.5729 41.4421 20.6458 41.3636 20.72C41.0982 20.9713 40.8405 21.2379 40.5904 21.52C40.2009 21.971 39.839 22.4555 39.5047 22.9735C39.2983 23.2932 39.1024 23.6258 38.917 23.9711C38.6558 24.4576 38.4154 24.9695 38.1959 25.5067C38.1952 25.5086 38.1944 25.5105 38.1936 25.5124C38.1655 25.5812 38.1378 25.6504 38.1104 25.72C38.0649 25.8387 38.0211 25.9584 37.979 26.0793C37.7585 26.7122 37.5842 27.3752 37.4562 28.0684C37.4522 28.0904 37.4481 28.1124 37.4442 28.1344C37.275 29.0745 37.1904 30.0696 37.1904 31.12C37.1904 33.0933 37.8571 34.6133 39.1904 35.68C40.5075 36.7073 42.0326 37.2272 43.766 37.2398C43.7874 37.2399 43.8089 37.24 43.8304 37.24C44.7216 37.24 45.553 37.1637 46.3247 37.0111C46.3735 37.0015 46.4221 36.9915 46.4704 36.9813C47.19 36.8285 47.8567 36.6081 48.4704 36.32C48.6748 36.2241 48.8733 36.1252 49.0659 36.0234C49.7469 35.6635 50.3545 35.2669 50.8888 34.8337C50.9053 34.8203 50.9217 34.8068 50.9381 34.7934C51.2002 34.5779 51.4443 34.3534 51.6704 34.12C52.1761 33.5985 52.6022 33.0677 52.9487 32.5274C52.9755 32.4856 53.0019 32.4437 53.0278 32.4017C53.028 32.4013 53.0283 32.4009 53.0286 32.4005C53.034 32.3917 53.0393 32.383 53.0447 32.3742C53.0568 32.3544 53.0688 32.3346 53.0807 32.3148C53.148 32.2027 53.2119 32.0901 53.2723 31.9772C53.2871 32.1108 53.3029 32.2384 53.3198 32.36C53.3293 32.4266 53.3392 32.4927 53.3496 32.5582C53.3505 32.5638 53.3514 32.5695 53.3522 32.5751C53.359 32.6179 53.366 32.6604 53.3732 32.7027C53.4652 33.2477 53.5862 33.7541 53.736 34.222C53.8046 34.436 53.8792 34.6421 53.9598 34.84C54.2798 35.5333 54.6665 36.0933 55.1198 36.52C55.332 36.6968 55.5832 36.8345 55.8735 36.9332C56.24 37.0577 56.6687 37.12 57.1598 37.12C57.1665 37.12 57.1732 37.12 57.1799 37.12C57.7952 37.1173 58.4818 36.9914 59.2398 36.7422C59.5604 36.6369 59.8937 36.5094 60.2398 36.36C60.5939 36.2105 60.9376 36.0494 61.2708 35.8766C62.0668 35.464 62.8031 34.9851 63.4798 34.44C63.5871 34.353 63.6924 34.2651 63.7957 34.1765C63.8081 34.1658 63.8206 34.1551 63.833 34.1444C64.3705 33.6799 64.8518 33.1937 65.2769 32.686C65.5263 33.2951 65.8557 33.8655 66.2652 34.3973C66.4462 34.6324 66.6428 34.86 66.8551 35.08C67.3736 35.6079 67.9838 36.0426 68.6856 36.3839C69.0972 36.584 69.5402 36.752 70.0149 36.888C71.0202 37.176 72.167 37.32 73.4551 37.32C73.8493 37.32 74.236 37.298 74.6151 37.254C76.4447 37.0417 78.0981 36.317 79.5751 35.08C79.5871 35.0699 79.5992 35.0598 79.6112 35.0497C79.6297 35.034 79.6481 35.0183 79.6666 35.0025C80.1484 34.5901 80.6112 34.1226 81.0551 33.6C81.4077 33.6705 81.794 33.7255 82.2139 33.7649C82.5406 33.7956 82.8877 33.8169 83.2551 33.8288C83.3342 33.8313 83.4142 33.8334 83.4951 33.8351C83.5235 33.8357 83.5519 33.8362 83.5805 33.8367C83.692 33.8386 83.8052 33.8397 83.9202 33.8399C83.9384 33.84 83.9567 33.84 83.9751 33.84C84.2753 33.84 84.5685 33.8138 84.8548 33.7614C84.9223 33.7491 84.9895 33.7353 85.0562 33.72C85.8124 33.547 86.5187 33.187 87.1751 32.64C87.1926 32.625 87.2099 32.6098 87.2271 32.5944C87.2263 32.6289 87.2255 32.6633 87.2248 32.6977C87.2248 32.6983 87.2247 32.6989 87.2247 32.6995C87.2175 33.0411 87.2139 33.3813 87.2139 33.72C87.2139 33.9192 87.2176 34.1108 87.225 34.2947C87.3062 36.3022 87.8305 37.3953 88.7978 37.5738C88.8923 37.5913 88.991 37.6 89.0939 37.6C90.012 37.6 90.9202 37.2938 91.8186 36.6813C91.9639 36.5822 92.109 36.4751 92.2539 36.36C92.6539 36.04 92.8805 35.64 92.9339 35.16C92.9872 34.6533 93.0139 34.1467 93.0139 33.64L93.2939 28.16C93.3982 28.4275 93.5042 28.6941 93.6118 28.96C93.6129 28.9627 93.614 28.9655 93.6151 28.9682C93.6702 29.1044 93.7258 29.2404 93.7817 29.3761C93.782 29.3769 93.7823 29.3776 93.7826 29.3783C94.0626 30.0575 94.353 30.7314 94.6539 31.4C94.7567 31.6297 94.8603 31.8526 94.9648 32.0685C95.2418 32.641 95.5246 33.1648 95.8132 33.64C95.8434 33.6898 95.8737 33.739 95.9041 33.7877C96.36 34.5193 96.8304 35.1305 97.315 35.6212C97.3245 35.6308 97.3341 35.6404 97.3436 35.65C97.51 35.8166 97.6781 35.9691 97.8478 36.1074C98.6764 36.7825 99.5451 37.12 100.454 37.12C100.959 37.1262 101.452 37.0847 101.934 36.9957C102.588 36.8749 103.221 36.6665 103.833 36.3705C104.703 35.9499 105.53 35.3524 106.316 34.5779C106.335 34.5587 106.354 34.5394 106.374 34.52C106.992 33.9022 107.501 33.2762 107.902 32.6419C107.92 32.6136 107.938 32.5853 107.955 32.5569C107.966 32.5388 107.977 32.5207 107.988 32.5026C107.996 32.5537 108.003 32.6044 108.011 32.6547C108.035 32.8077 108.062 32.9568 108.09 33.1019C108.201 33.6749 108.346 34.1866 108.523 34.637C109.035 35.9376 109.82 36.7273 110.878 37.006C111.166 37.082 111.475 37.12 111.804 37.12C111.84 37.1204 111.876 37.1206 111.912 37.1206C112.269 37.12 112.622 37.0944 112.971 37.0436C113.388 36.9831 113.799 36.8869 114.204 36.7551C115.343 36.3853 116.439 35.7348 117.494 34.8037C117.77 35.162 118.114 35.5075 118.525 35.84C118.537 35.8494 118.549 35.8588 118.561 35.8681C118.902 36.131 119.287 36.3581 119.718 36.5496C119.719 36.55 119.72 36.5504 119.721 36.5508C119.932 36.6447 120.155 36.7299 120.388 36.8066C120.927 36.9837 121.524 37.1149 122.179 37.2004C122.79 37.2801 123.452 37.32 124.165 37.32C125.272 37.32 126.272 37.2284 127.165 37.0451C127.739 36.9273 128.269 36.7716 128.755 36.578C129.243 36.3836 129.686 36.1509 130.085 35.88C131.211 35.0937 131.889 34.0534 132.118 32.759C132.136 32.6544 132.152 32.548 132.164 32.44C132.192 32.2077 132.205 31.9677 132.205 31.72C132.205 31.4308 132.173 31.1457 132.107 30.8647C131.968 30.2646 131.681 29.683 131.245 29.12C131.156 29 131.065 28.8802 130.973 28.7607C130.429 28.0574 129.826 27.3638 129.165 26.68C129.214 26.6631 129.263 26.6458 129.312 26.6279C129.384 26.6015 129.455 26.574 129.525 26.5453C129.559 26.5314 129.593 26.5173 129.627 26.5028C130.52 26.1208 131.286 25.5532 131.925 24.8C131.94 24.7821 131.956 24.7641 131.97 24.7461C132.187 24.4849 132.372 24.2095 132.526 23.92C132.639 23.7075 132.734 23.4874 132.813 23.2596C132.841 23.1768 132.868 23.0929 132.892 23.008C132.959 22.7731 133.008 22.5304 133.04 22.28C133.07 22.0467 133.085 21.8067 133.085 21.56C133.085 20.8732 132.958 20.2747 132.705 19.7645C132.54 19.4315 132.32 19.1361 132.047 18.8783C131.959 18.7949 131.865 18.7155 131.765 18.64C131.743 18.6224 131.72 18.605 131.697 18.5879C130.837 17.9452 129.567 17.6288 127.885 17.6387C127.845 17.639 127.805 17.6394 127.765 17.64C127.064 17.64 126.396 17.722 125.761 17.8861C125.742 17.8912 125.722 17.8963 125.703 17.9015C125.46 17.9663 125.223 18.0431 124.99 18.1319C124.299 18.3954 123.651 18.7648 123.045 19.24C122.285 19.8731 121.726 20.6065 121.367 21.44C121.214 21.7948 121.098 22.1678 121.018 22.559C121.004 22.6237 120.992 22.6889 120.981 22.7546C120.957 22.8926 120.938 23.0329 120.923 23.1753C120.898 23.4172 120.885 23.6654 120.885 23.92C120.885 24.0217 120.888 24.1221 120.892 24.2214C120.915 24.6947 120.994 25.1405 121.127 25.5588C121.259 25.9729 121.445 26.3599 121.685 26.72C121.752 26.8176 121.821 26.9146 121.891 27.0109C121.903 27.0278 121.916 27.0448 121.928 27.0617C122.402 27.7101 122.935 28.3296 123.525 28.92C123.565 28.9599 123.605 28.9999 123.645 29.04C123.829 29.2245 124.012 29.4109 124.196 29.5992C124.199 29.6022 124.202 29.6052 124.205 29.6081C124.356 29.7635 124.508 29.9201 124.659 30.0779C124.664 30.0832 124.669 30.0885 124.675 30.0938C124.941 30.3716 125.207 30.6532 125.474 30.9388C125.518 30.9858 125.561 31.0328 125.605 31.08C125.914 31.3888 126.186 31.7245 126.421 32.0872C126.734 32.5703 126.982 33.1012 127.165 33.68C126.245 33.68 125.432 33.5784 124.725 33.3751C124.531 33.3191 124.344 33.2553 124.165 33.1838C124.007 33.1205 123.855 33.0511 123.71 32.9756C123.678 32.9594 123.647 32.943 123.617 32.9263C123.256 32.7291 122.936 32.4932 122.656 32.2186C122.604 32.1669 122.553 32.1139 122.503 32.0595C122.497 32.053 122.491 32.0465 122.485 32.04C122.479 32.0334 122.473 32.0268 122.468 32.0202C122.284 31.812 122.123 31.5987 121.985 31.3805C121.914 31.2687 121.849 31.1555 121.79 31.041C121.745 30.9544 121.704 30.8671 121.666 30.779C121.629 30.6934 121.596 30.607 121.565 30.52C121.362 29.9325 121.185 29.4392 121.033 29.04C120.806 28.4425 120.637 28.0558 120.525 27.88C120.473 27.7901 120.411 27.7128 120.339 27.6481C120.333 27.6422 120.326 27.6363 120.319 27.6305C120.25 27.5712 120.171 27.5233 120.084 27.4869C119.946 27.429 119.787 27.4 119.605 27.4C119.264 27.4 118.932 27.5165 118.61 27.7496C118.579 27.7717 118.548 27.7948 118.518 27.819C118.501 27.8328 118.483 27.8469 118.466 27.8614C118.46 27.8661 118.455 27.8709 118.449 27.8757C118.437 27.8856 118.426 27.8956 118.414 27.9057C118.124 28.1607 117.841 28.5121 117.565 28.96C117.549 28.9866 117.534 29.0133 117.519 29.04C117.473 29.1197 117.429 29.2002 117.387 29.2813C117.362 29.3308 117.337 29.3805 117.313 29.4305C117.251 29.5573 117.194 29.6858 117.141 29.816C117.139 29.8192 117.138 29.8224 117.137 29.8255C117.131 29.839 117.126 29.8526 117.12 29.8661C117.089 29.9446 117.059 30.0237 117.031 30.1034C116.962 30.2982 116.903 30.4966 116.852 30.6985C116.765 30.7818 116.678 30.8642 116.59 30.9458C116.57 30.9647 116.55 30.9835 116.53 31.0023C116.516 31.0149 116.503 31.0275 116.489 31.04C116.478 31.0505 116.466 31.0611 116.455 31.0716C116.198 31.3087 115.941 31.5382 115.684 31.76C115.591 31.8405 115.5 31.9146 115.412 31.9824C115.411 31.9827 115.411 31.983 115.411 31.9833C115.123 32.2029 114.861 32.3552 114.623 32.44C114.474 32.4933 114.334 32.52 114.204 32.52C114.018 32.52 113.841 32.4933 113.674 32.44C113.616 32.4214 113.559 32.3995 113.503 32.3743C113.4 32.3275 113.3 32.2694 113.204 32.2C113.104 32.1193 113.022 32.0138 112.959 31.8835C112.955 31.8754 112.951 31.8671 112.948 31.8587C112.852 31.6478 112.804 31.3749 112.804 31.04C112.804 30.9452 112.813 30.8249 112.831 30.679C112.876 30.3027 112.98 29.7564 113.142 29.04C113.155 28.982 113.168 28.9229 113.182 28.8627C113.27 28.4813 113.374 28.0551 113.492 27.5842C113.555 27.3345 113.622 27.0723 113.694 26.7975C113.701 26.7701 113.708 26.7426 113.715 26.7149C113.717 26.7076 113.719 26.7003 113.721 26.693C113.722 26.6887 113.723 26.6843 113.724 26.68C113.73 26.6557 113.736 26.6314 113.742 26.6072C113.852 26.1433 113.952 25.7039 114.042 25.2888C114.47 23.3286 114.684 21.9123 114.684 21.04C114.709 20.3216 114.561 19.5917 114.241 18.8503C114.217 18.7936 114.191 18.7368 114.164 18.68C113.958 18.2057 113.718 17.8396 113.444 17.5816C113.118 17.2739 112.745 17.12 112.324 17.12C111.671 17.12 111.051 17.547 110.464 18.4011C110.282 18.6654 110.104 18.9706 109.928 19.3167C109.538 20.088 109.163 21.0624 108.804 22.24C108.765 22.3724 108.726 22.5058 108.688 22.64C108.684 22.6544 108.68 22.6687 108.676 22.6831C108.612 22.9156 108.551 23.1508 108.494 23.3888C108.151 24.8112 107.937 26.3307 107.849 27.947C107.695 28.0693 107.537 28.2337 107.374 28.44C107.222 28.6323 107.061 28.8323 106.89 29.04C106.73 29.2333 106.563 29.4333 106.387 29.64C106.254 29.7962 106.116 29.9562 105.974 30.12C105.88 30.2235 105.784 30.3258 105.685 30.4268C105.464 30.6539 105.233 30.8748 104.991 31.0893C104.731 31.3202 104.458 31.5437 104.174 31.76C104.124 31.7982 104.073 31.8349 104.022 31.8702C103.962 31.9113 103.902 31.9504 103.841 31.9876C103.553 32.1639 103.252 32.2964 102.936 32.3851C102.87 32.4036 102.804 32.4202 102.737 32.4349C102.478 32.4916 102.211 32.52 101.934 32.52C101.415 32.52 100.942 32.3883 100.515 32.1248C100.513 32.1236 100.511 32.1223 100.509 32.121C100.508 32.1207 100.508 32.1205 100.507 32.1203C100.09 31.8615 99.7167 31.4769 99.3866 30.9667C99.1356 30.5788 98.9097 30.1183 98.709 29.5851C98.7079 29.5823 98.7068 29.5795 98.7058 29.5766C98.6064 29.3121 98.5133 29.0297 98.4263 28.7295C98.3804 28.5713 98.3363 28.4081 98.2939 28.24C98.4222 28.2421 98.5505 28.2407 98.6786 28.2356C98.694 28.235 98.7093 28.2343 98.7246 28.2336C99.6209 28.1922 100.513 27.9745 101.401 27.5805C101.58 27.501 101.759 27.4144 101.938 27.3205C102.045 27.2642 102.152 27.2052 102.26 27.1437C102.267 27.1394 102.274 27.1352 102.282 27.131C102.332 27.1017 102.383 27.0719 102.434 27.0416C102.464 27.0231 102.495 27.0044 102.526 26.9855C102.658 26.9046 102.789 26.8198 102.921 26.7311C102.965 26.7011 103.01 26.6708 103.054 26.64C103.43 26.3785 103.762 26.1032 104.048 25.8142C104.276 25.5843 104.475 25.3458 104.646 25.0985C104.963 24.6387 105.182 24.1489 105.303 23.6289C105.377 23.3106 105.414 22.9809 105.414 22.64C105.414 22.106 105.362 21.6165 105.257 21.1715C105.256 21.1671 105.255 21.1626 105.254 21.1582C105.098 20.5035 104.829 19.9457 104.447 19.4847C104.327 19.3403 104.196 19.2054 104.054 19.08C103.432 18.5131 102.622 18.1406 101.624 17.9624C101.37 17.9171 101.104 17.8843 100.826 17.8642C100.603 17.8481 100.372 17.84 100.134 17.84C99.4021 17.84 98.7488 17.9282 98.1739 18.1047C98.0784 18.1341 97.985 18.1658 97.8939 18.2C97.8226 18.2262 97.752 18.2534 97.682 18.2816C97.6627 18.2894 97.6435 18.2972 97.6244 18.3051C97.1586 18.4975 96.7234 18.7343 96.3187 19.0153C96.0513 19.201 95.7972 19.4061 95.5564 19.6305C94.8466 20.2921 94.2524 21.1219 93.7739 22.12L94.1739 18.76C94.3113 18.5417 94.4488 18.3283 94.5862 18.1198C94.6011 18.0972 94.616 18.0746 94.631 18.0521C94.9319 17.5979 95.2329 17.1672 95.5339 16.76C95.9593 16.1593 96.3496 15.5822 96.7046 15.0285C96.7095 15.0208 96.7144 15.0131 96.7194 15.0054C96.7376 14.9769 96.7558 14.9484 96.7739 14.92C97.1466 14.3076 97.4396 13.6952 97.6529 13.0828C97.6532 13.0819 97.6535 13.0809 97.6539 13.08C97.8939 12.44 98.0005 11.8 97.9739 11.16C97.9739 10.4933 97.7605 9.82667 97.3339 9.16C96.9072 8.46666 96.5072 7.96 96.1339 7.64C95.7605 7.29333 95.4005 7.12 95.0539 7.12C94.7339 7.12 94.4405 7.2 94.1739 7.36L91.6014 3.07254C92.6684 2.43231 93.8552 2.12 95.0539 2.12C97.088 2.12 98.5822 3.11135 99.4632 3.90912C100.355 4.6933 101.044 5.65213 101.571 6.50557C102.384 7.78887 102.95 9.3249 102.973 11.0504C102.995 11.7485 102.941 12.434 102.818 13.1019C104.221 13.3917 105.608 13.9486 106.845 14.9009C107.14 14.542 107.489 14.1693 107.896 13.8178C107.547 12.7441 107.364 11.6134 107.364 10.44C107.364 8.74959 107.615 6.95305 108.394 5.28557L108.408 5.25378L108.424 5.2222C108.886 4.267 109.499 3.1662 110.325 2.25825C111.446 0.99698 113.13 0 115.244 0C118.833 0 120.804 2.70656 121.657 4.25437C122.434 5.6447 123.204 7.44874 123.204 9.44C123.204 11.0332 122.846 12.5742 122.098 13.9479C123.834 13.0799 125.732 12.6456 127.727 12.6401C130.001 12.6106 132.659 12.9986 134.822 14.6829C135.163 14.9446 135.475 15.2236 135.759 15.5173C135.805 15.4776 135.852 15.4381 135.899 15.3989L135.956 15.3515L136.014 15.3057C138.276 13.5319 140.931 12.6479 143.781 12.6401C146.055 12.6106 148.713 12.9986 150.876 14.6829C153.187 16.4525 154.14 19.0114 154.14 21.56C154.14 23.7176 153.506 25.7694 152.201 27.5221C152.862 28.7685 153.26 30.1789 153.26 31.72C153.26 35.0695 151.812 38.018 149.002 39.9798L148.976 39.9981L148.949 40.0161C146.396 41.7502 143.298 42.32 140.22 42.32C137.525 42.32 134.699 41.866 132.338 40.3707C129.898 41.8288 127.023 42.32 124.165 42.32C121.83 42.32 119.397 41.9791 117.252 40.9151C115.575 41.7034 113.742 42.1402 111.771 42.1199C110.306 42.1146 108.793 41.7581 107.41 40.8957C107.191 40.7595 106.983 40.6151 106.784 40.4635C104.885 41.5457 102.751 42.1435 100.42 42.1199C98.4032 42.1123 96.6586 41.4162 95.22 40.3877C93.5431 41.6813 91.4759 42.6 89.0939 42.6C87.8727 42.6 86.5881 42.2684 85.4375 41.4769C84.3337 40.7176 83.6321 39.728 83.1935 38.8292C83.0939 38.8264 82.9945 38.823 82.8954 38.819C80.2634 41.0628 77.0807 42.32 73.4551 42.32C70.2989 42.32 67.1559 41.635 64.6083 39.7361C63.8412 40.1978 63.0385 40.6047 62.2035 40.9583C60.669 41.619 58.9498 42.12 57.1598 42.12C55.5814 42.12 53.603 41.7645 51.9189 40.3611L51.8029 40.2645L51.7771 40.2402C51.3917 40.4557 50.9971 40.6574 50.595 40.8462C48.4848 41.8367 46.1811 42.24 43.8304 42.24C41.0052 42.24 38.365 41.3773 36.1153 39.6225L36.091 39.6036L36.067 39.5843C34.7492 38.5302 33.7969 37.2641 33.166 35.8708C32.6005 36.5104 31.9891 37.1172 31.3308 37.6889C27.6577 40.903 23.0497 42.32 17.9651 42.32C12.7551 42.32 8.07737 40.6966 4.61559 36.9563L4.60652 36.9465L4.5975 36.9366C1.59643 33.6591 0.245117 29.5494 0.245117 25.04C0.245117 22.1524 0.706289 19.3393 1.63337 16.6243L1.64216 16.5985L1.65123 16.5729C2.6069 13.8706 3.96642 11.4168 5.749 9.25718L5.76391 9.23911L5.77899 9.22119C7.6349 7.01511 9.87805 5.25069 12.4653 3.93982C15.2375 2.53525 18.2645 1.88 21.4451 1.88C24.514 1.88 27.4584 2.41631 30.0566 3.75598C31.7541 4.63129 34.8517 6.58151 35.2764 10.1644C35.6993 10.5786 36.0922 11.0425 36.4504 11.5568ZM135.987 36.6403C136.134 36.6996 136.286 36.7551 136.443 36.8066C137.484 37.1489 138.743 37.32 140.22 37.32C141.327 37.32 142.327 37.2284 143.22 37.0451C144.371 36.8089 145.344 36.4205 146.14 35.88C147.266 35.0937 147.944 34.0534 148.172 32.759C148.231 32.4292 148.26 32.0828 148.26 31.72C148.26 31.4308 148.227 31.1457 148.162 30.8647C148.023 30.2646 147.736 29.683 147.3 29.12C147.211 29 147.12 28.8802 147.028 28.7607C146.483 28.0574 145.881 27.3638 145.22 26.68C145.269 26.6631 145.318 26.6458 145.367 26.6279C146.396 26.2496 147.267 25.6403 147.98 24.8C148.378 24.3326 148.674 23.8191 148.868 23.2596C148.975 22.9474 149.051 22.6209 149.095 22.28C149.125 22.0467 149.14 21.8067 149.14 21.56C149.14 20.425 148.794 19.5311 148.102 18.8783C148.014 18.7949 147.919 18.7155 147.82 18.64C147.797 18.6224 147.775 18.605 147.752 18.5879C146.892 17.9452 145.621 17.6288 143.94 17.6387C143.9 17.639 143.86 17.6394 143.82 17.64C143.119 17.64 142.451 17.722 141.816 17.8861C141.796 17.8912 141.777 17.8963 141.757 17.9015C141.515 17.9663 141.277 18.0431 141.045 18.1319C140.354 18.3954 139.706 18.7648 139.1 19.24C138.677 19.5927 138.315 19.9766 138.017 20.3915C137.779 20.7213 137.581 21.0708 137.422 21.44C137.405 21.4798 137.388 21.5198 137.372 21.56C137.243 21.8787 137.144 22.2117 137.072 22.559C137.031 22.7596 137 22.9651 136.978 23.1753C136.952 23.4172 136.94 23.6654 136.94 23.92C136.94 24.0217 136.942 24.1221 136.947 24.2214C136.97 24.6947 137.048 25.1405 137.182 25.5588C137.195 25.6017 137.21 25.6444 137.225 25.6868C137.353 26.0529 137.525 26.3973 137.74 26.72C137.807 26.8176 137.876 26.9146 137.946 27.0109C137.958 27.0278 137.97 27.0448 137.983 27.0617C138.457 27.7101 138.989 28.3296 139.58 28.92C139.803 29.1436 140.027 29.37 140.251 29.5992C140.254 29.6022 140.256 29.6052 140.259 29.6081C140.411 29.7635 140.562 29.9201 140.714 30.078C140.719 30.0833 140.724 30.0886 140.729 30.0939C141.039 30.4172 141.35 30.7459 141.66 31.08C141.969 31.3888 142.241 31.7245 142.476 32.0872C142.789 32.5703 143.037 33.1012 143.22 33.68C142.046 33.68 141.046 33.5146 140.22 33.1838C140.062 33.1205 139.91 33.0511 139.764 32.9756C139.733 32.9594 139.702 32.943 139.672 32.9263C139.311 32.7291 138.991 32.4932 138.711 32.2186C138.652 32.1608 138.595 32.1012 138.54 32.04C138.183 31.6383 137.91 31.218 137.721 30.779C137.684 30.6934 137.65 30.607 137.62 30.52C137.113 29.0533 136.766 28.1733 136.58 27.88C136.527 27.7901 136.465 27.7128 136.394 27.6481C136.387 27.6422 136.381 27.6363 136.374 27.6305C136.311 27.577 136.241 27.5327 136.164 27.4978C136.151 27.4918 136.138 27.4861 136.124 27.4807C135.989 27.4269 135.835 27.4 135.66 27.4C135.474 27.4 135.292 27.4345 135.111 27.5035C135.108 27.505 135.104 27.5064 135.1 27.5079C134.585 27.7095 134.091 28.1936 133.62 28.96C133.557 29.0659 133.498 29.173 133.442 29.2813C133.343 29.4724 133.254 29.6673 133.175 29.8661C133.144 29.9446 133.114 30.0237 133.086 30.1034C133.054 30.195 133.023 30.2874 132.995 30.3806C132.92 30.6265 132.86 30.8779 132.813 31.1349C132.78 31.3199 132.754 31.5078 132.735 31.6986C132.735 31.7057 132.734 31.7129 132.733 31.72C132.711 31.9556 132.7 32.1956 132.7 32.44C132.7 33.6933 133.326 34.8267 134.58 35.84C134.984 36.158 135.453 36.4248 135.987 36.6403ZM115.985 13.2242C116.24 13.0799 116.486 12.9119 116.724 12.72C117.711 11.92 118.204 10.8267 118.204 9.44C118.204 8.69333 117.898 7.77333 117.284 6.68C116.671 5.56 115.991 5 115.244 5C114.791 5 114.391 5.2 114.044 5.6C113.698 5.97333 113.324 6.57333 112.924 7.4C112.551 8.2 112.364 9.21333 112.364 10.44C112.364 11.0197 112.445 11.5814 112.606 12.1254C112.785 12.7325 113.065 13.3174 113.444 13.88C114.367 13.88 115.214 13.6614 115.985 13.2242ZM144.9 21.44C144.686 21.1733 144.366 21.04 143.94 21.04C143.917 21.04 143.894 21.0402 143.871 21.0405C143.854 21.0407 143.837 21.041 143.82 21.0414C143.436 21.0505 143.062 21.1034 142.7 21.2C142.326 21.3067 142.02 21.3867 141.78 21.44C141.78 21.707 141.823 21.987 141.91 22.28C141.932 22.3531 141.956 22.4269 141.984 22.5016C142.007 22.5647 142.031 22.6285 142.058 22.6928C142.087 22.7617 142.118 22.8313 142.151 22.9015C142.185 22.9727 142.221 23.0445 142.259 23.117C142.259 23.1174 142.259 23.1178 142.259 23.1181C142.311 23.2167 142.367 23.3166 142.428 23.4177C142.487 23.5175 142.551 23.6186 142.619 23.7209C142.897 24.14 143.244 24.5797 143.66 25.04C143.676 25.0221 143.693 25.0042 143.709 24.9863C143.728 24.9663 143.746 24.9463 143.764 24.9263C143.825 24.8602 143.883 24.7948 143.94 24.7303C144.099 24.5486 144.244 24.3731 144.374 24.2038C144.89 23.5334 145.181 22.9589 145.246 22.4803C145.246 22.4766 145.247 22.473 145.247 22.4693C145.256 22.4044 145.26 22.3413 145.26 22.28C145.26 22.2004 145.252 22.1233 145.238 22.0486C145.231 22.0149 145.223 21.9816 145.213 21.9489C145.172 21.8102 145.103 21.6805 145.007 21.56C144.975 21.5189 144.939 21.4789 144.9 21.44ZM93.6539 27.16C93.6721 27.1163 93.6905 27.0727 93.7092 27.0292C93.9645 26.4345 94.266 25.8515 94.6139 25.28C94.749 25.0576 94.8831 24.8469 95.0162 24.6479C95.2904 24.238 95.5601 23.8779 95.8255 23.5677C95.8277 23.5651 95.8299 23.5626 95.8321 23.56C95.928 23.4481 96.0233 23.3428 96.1181 23.244C96.1311 23.2304 96.1441 23.217 96.157 23.2037C96.2898 23.0675 96.4215 22.9441 96.552 22.8336C96.5578 22.8287 96.5635 22.8238 96.5693 22.819C96.7132 22.6982 96.8558 22.5931 96.9969 22.5037C97.4006 22.2479 97.7929 22.12 98.1739 22.12C98.4081 22.12 98.6173 22.142 98.8013 22.1861C99.1032 22.2584 99.3375 22.3899 99.5044 22.5807C99.5258 22.6051 99.546 22.6305 99.5652 22.6569C99.6099 22.7185 99.6487 22.7854 99.6813 22.8576C99.6837 22.8629 99.6861 22.8682 99.6884 22.8736C99.772 23.0657 99.8139 23.2945 99.8139 23.56C99.8139 24.04 99.6539 24.4933 99.3339 24.92C99.0632 25.2761 98.7297 25.5904 98.3335 25.8629C98.2814 25.8987 98.2282 25.9338 98.1739 25.9682C97.8782 26.1555 97.5502 26.3213 97.1901 26.4656C97.0643 26.516 96.9346 26.5638 96.801 26.6089C96.8002 26.6092 96.7993 26.6095 96.7985 26.6098C96.7565 26.6239 96.7142 26.6378 96.6715 26.6515C95.8195 26.9236 94.8136 27.0931 93.6539 27.16ZM128.845 21.44C128.632 21.1733 128.312 21.04 127.885 21.04C127.862 21.04 127.839 21.0402 127.816 21.0405C127.799 21.0407 127.782 21.041 127.765 21.0414C127.381 21.0505 127.007 21.1034 126.645 21.2C126.272 21.3067 125.965 21.3867 125.725 21.44C125.725 21.707 125.769 21.987 125.856 22.28C125.877 22.3531 125.902 22.4269 125.929 22.5016C125.952 22.5647 125.977 22.6284 126.004 22.6927C126.032 22.7617 126.063 22.8312 126.096 22.9015C126.13 22.9727 126.166 23.0445 126.204 23.117C126.204 23.1174 126.204 23.1178 126.205 23.1181C126.257 23.2167 126.313 23.3166 126.373 23.4177C126.433 23.5175 126.496 23.6186 126.564 23.7209C126.842 24.14 127.189 24.5797 127.605 25.04C127.622 25.0221 127.638 25.0042 127.655 24.9863C127.673 24.9663 127.692 24.9463 127.71 24.9263C127.77 24.8602 127.828 24.7948 127.885 24.7303C128.044 24.5486 128.189 24.3731 128.32 24.2038C128.836 23.5334 129.126 22.9589 129.191 22.4803C129.192 22.4766 129.192 22.473 129.193 22.4693C129.201 22.4044 129.205 22.3413 129.205 22.28C129.205 22.2004 129.198 22.1233 129.183 22.0486C129.176 22.0149 129.168 21.9816 129.158 21.9489C129.117 21.8102 129.048 21.6805 128.952 21.56C128.92 21.5189 128.884 21.4789 128.845 21.44ZM81.3331 25.6306C81.2425 25.1299 81.0055 24.8556 80.6219 24.8076C80.5813 24.8025 80.539 24.8 80.4951 24.8C80.3384 24.8 80.1988 24.8739 80.0762 25.0216C80.0554 25.0468 80.035 25.0741 80.0151 25.1035C79.9729 25.166 79.9329 25.2382 79.8951 25.32C79.8833 25.3457 79.8718 25.3713 79.8609 25.3968C79.8029 25.5316 79.7573 25.6643 79.7238 25.795C79.7062 25.8639 79.6919 25.9322 79.6811 26C79.673 26.0504 79.6668 26.1005 79.6625 26.1502C79.6623 26.1528 79.6621 26.1554 79.6618 26.1581C79.6618 26.1587 79.6617 26.1594 79.6617 26.16C79.659 26.1932 79.6571 26.2262 79.6561 26.2591C79.6554 26.2795 79.6551 26.2998 79.6551 26.32C79.6551 26.409 79.6575 26.4968 79.6624 26.5832C79.6642 26.6156 79.6663 26.6479 79.6688 26.68C79.7168 27.2972 79.8908 27.8466 80.1908 28.3281C80.2392 28.4058 80.2908 28.4817 80.3458 28.5559C80.3931 28.6198 80.4429 28.6823 80.4951 28.7436C80.5582 28.8176 80.6249 28.8898 80.6951 28.96C80.7724 28.7964 80.8431 28.6335 80.9072 28.4714C80.9285 28.4174 80.9491 28.3635 80.969 28.3098C81.2192 27.6329 81.3538 26.9697 81.3728 26.32C81.3743 26.2666 81.3751 26.2132 81.3751 26.16C81.3751 26.1056 81.3741 26.0528 81.3719 26.0016C81.3719 26.0011 81.3719 26.0005 81.3719 26C81.3663 25.8656 81.3533 25.7425 81.3331 25.6306ZM29.1616 6.43961C29.1825 6.4391 29.1922 6.43822 29.1916 6.43775C29.1909 6.43722 29.1773 6.43719 29.1522 6.43876C29.1557 6.43908 29.1588 6.43936 29.1616 6.43961Z" fill="#CD5D5D"/>
</svg>
