<svg width="123" height="474" viewBox="0 0 123 474" fill="none" xmlns="http://www.w3.org/2000/svg">
<path d="M35 30C59.3333 46.3333 108 100.4 108 186C108 293 57 318 57 474" stroke="#82A5FF" stroke-width="30" stroke-linecap="round" stroke-linejoin="round"/>
<g filter="url(#filter0_d_854_8)">
<ellipse cx="28.5" cy="28" rx="28.5" ry="28" transform="matrix(-1 0 0 1 63 2)" fill="#FFBDBD"/>
<path d="M34.5 59C18.2244 59 5 46.0329 5 30C5 13.9671 18.2244 1 34.5 1C50.7756 1 64 13.9671 64 30C64 46.0329 50.7756 59 34.5 59Z" stroke="#DC6B6B" stroke-width="2"/>
</g>
<path d="M40.9184 33.68H43.9184V37.16C43.9184 37.4667 43.8118 37.7333 43.5984 37.96C43.3984 38.1867 43.1051 38.3 42.7184 38.3H40.9184V45H35.5184V38.3H23.7984C23.4118 38.3 23.0584 38.18 22.7384 37.94C22.4318 37.7 22.2384 37.4 22.1584 37.04L21.5184 33.98L34.9984 15.86H40.9184V33.68ZM35.5184 26.08C35.5184 25.6133 35.5318 25.1133 35.5584 24.58C35.5984 24.0333 35.6518 23.4733 35.7184 22.9L28.0184 33.68H35.5184V26.08Z" fill="#DC6B6B"/>
<defs>
<filter id="filter0_d_854_8" x="0" y="0" width="69" height="68" filterUnits="userSpaceOnUse" color-interpolation-filters="sRGB">
<feFlood flood-opacity="0" result="BackgroundImageFix"/>
<feColorMatrix in="SourceAlpha" type="matrix" values="0 0 0 0 0 0 0 0 0 0 0 0 0 0 0 0 0 0 127 0" result="hardAlpha"/>
<feOffset dy="4"/>
<feGaussianBlur stdDeviation="2"/>
<feComposite in2="hardAlpha" operator="out"/>
<feColorMatrix type="matrix" values="0 0 0 0 0 0 0 0 0 0 0 0 0 0 0 0 0 0 0.25 0"/>
<feBlend mode="normal" in2="BackgroundImageFix" result="effect1_dropShadow_854_8"/>
<feBlend mode="normal" in="SourceGraphic" in2="effect1_dropShadow_854_8" result="shape"/>
</filter>
</defs>
</svg>
